%YAML 1.1
%TAG !u! tag:unity3d.com,2011:
--- !u!114 &11400000
MonoBehaviour:
  m_ObjectHideFlags: 0
  m_CorrespondingSourceObject: {fileID: 0}
  m_PrefabInstance: {fileID: 0}
  m_PrefabAsset: {fileID: 0}
  m_GameObject: {fileID: 0}
  m_Enabled: 1
  m_EditorHideFlags: 0
  m_Script: {fileID: 11500000, guid: da652de22d3984146af23c3d5632857a, type: 3}
  m_Name: EnemyTypes5
  m_EditorClassIdentifier: 
  enemiesToSpawn:
  - {fileID: 11400000, guid: 3bae1519f7cc58542820fdf75864c46b, type: 2}
  - {fileID: 11400000, guid: 86bb8905a6ae80d409d5101047b41ee4, type: 2}
  - {fileID: 11400000, guid: 1672ae070fb91c146977cc48928cb16a, type: 2}
