%YAML 1.1
%TAG !u! tag:unity3d.com,2011:
--- !u!114 &11400000
MonoBehaviour:
  m_ObjectHideFlags: 0
  m_CorrespondingSourceObject: {fileID: 0}
  m_PrefabInstance: {fileID: 0}
  m_PrefabAsset: {fileID: 0}
  m_GameObject: {fileID: 0}
  m_Enabled: 1
  m_EditorHideFlags: 0
  m_Script: {fileID: 11500000, guid: da652de22d3984146af23c3d5632857a, type: 3}
  m_Name: EnemyTypes2
  m_EditorClassIdentifier: 
  enemiesToSpawn:
  - {fileID: 11400000, guid: bd9f6b3b18d5117418a0652588dcbdd4, type: 2}
  - {fileID: 11400000, guid: be742082d94acce4e811b5acf20d6906, type: 2}
  - {fileID: 11400000, guid: b8c3a759e7f19904fa850ded7d5b6e7b, type: 2}
