%YAML 1.1
%TAG !u! tag:unity3d.com,2011:
--- !u!114 &11400000
MonoBehaviour:
  m_ObjectHideFlags: 0
  m_CorrespondingSourceObject: {fileID: 0}
  m_PrefabInstance: {fileID: 0}
  m_PrefabAsset: {fileID: 0}
  m_GameObject: {fileID: 0}
  m_Enabled: 1
  m_EditorHideFlags: 0
  m_Script: {fileID: 11500000, guid: ba75182e88459504f8eb2dea7fd45b9e, type: 3}
  m_Name: Salt
  m_EditorClassIdentifier: 
  projectileSpeedLevels:
  - 0
  - 0
  - 0.25
  - 0.25
  - 0.25
  - 0.25
  - 0.25
  projectileSizeLevels:
  - 0
  - 0
  - 0
  - 0
  - 0
  - 0
  - 0
  damageLevels:
  - 0
  - 0
  - 0
  - 0
  - 0
  - 0
  - 0
  damageTickLevels:
  - 0
  - 0
  - 0
  - 0
  - 0
  - 0
  - 0.25
  spawnRateLevels:
  - 0
  - 0
  - 0
  - 0
  - 0
  - 0
  - 0
  destructTimerLevels:
  - 0
  - 0.2
  - 0.2
  - 0.2
  - 0.2
  - 0.2
  - 0.2
  defaultSpeed: 16
  defaultSize: {x: 4, y: 4, z: 0}
  defaultDamage: 100
  defaultDamageTick: 0
  defaultAttackRate: 3
  defaultDestructTimer: 5
