%YAML 1.1
%TAG !u! tag:unity3d.com,2011:
--- !u!114 &11400000
MonoBehaviour:
  m_ObjectHideFlags: 0
  m_CorrespondingSourceObject: {fileID: 0}
  m_PrefabInstance: {fileID: 0}
  m_PrefabAsset: {fileID: 0}
  m_GameObject: {fileID: 0}
  m_Enabled: 1
  m_EditorHideFlags: 0
  m_Script: {fileID: 11500000, guid: fb09042eef2c8344ba398b1a031e5999, type: 3}
  m_Name: Cluster
  m_EditorClassIdentifier: 
  health: 80
  maxHealth: 80
  atkSpeed: 0.5
  damage: 5
  moveSpeed: 16
  katolSlowPercent: 0.4
  insecticideDefPercent: 0.25
  saltGunDefPercent: 1
