%YAML 1.1
%TAG !u! tag:unity3d.com,2011:
--- !u!74 &7400000
AnimationClip:
  m_ObjectHideFlags: 0
  m_CorrespondingSourceObject: {fileID: 0}
  m_PrefabInstance: {fileID: 0}
  m_PrefabAsset: {fileID: 0}
  m_Name: E_InsecticideOpen
  serializedVersion: 6
  m_Legacy: 0
  m_Compressed: 0
  m_UseHighQualityCurve: 1
  m_RotationCurves: []
  m_CompressedRotationCurves: []
  m_EulerCurves: []
  m_PositionCurves: []
  m_ScaleCurves: []
  m_FloatCurves: []
  m_PPtrCurves:
  - curve:
    - time: 0
      value: {fileID: 504724637, guid: 8d931f33cc547324bb93d58f3e79b1f6, type: 3}
    - time: 0.1
      value: {fileID: 477189322, guid: 8d931f33cc547324bb93d58f3e79b1f6, type: 3}
    - time: 0.2
      value: {fileID: -165803686, guid: 8d931f33cc547324bb93d58f3e79b1f6, type: 3}
    - time: 0.3
      value: {fileID: -617314096, guid: 8d931f33cc547324bb93d58f3e79b1f6, type: 3}
    - time: 0.4
      value: {fileID: -1147323249, guid: 8d931f33cc547324bb93d58f3e79b1f6, type: 3}
    - time: 0.5
      value: {fileID: 604837485, guid: 8d931f33cc547324bb93d58f3e79b1f6, type: 3}
    - time: 0.6
      value: {fileID: -1278795121, guid: 8d931f33cc547324bb93d58f3e79b1f6, type: 3}
    - time: 0.7
      value: {fileID: 340293635, guid: 8d931f33cc547324bb93d58f3e79b1f6, type: 3}
    - time: 0.8
      value: {fileID: -1169379925, guid: 8d931f33cc547324bb93d58f3e79b1f6, type: 3}
    - time: 0.9
      value: {fileID: 252408882, guid: 8d931f33cc547324bb93d58f3e79b1f6, type: 3}
    - time: 1
      value: {fileID: 1575995582, guid: 8d931f33cc547324bb93d58f3e79b1f6, type: 3}
    attribute: m_Sprite
    path: 
    classID: 212
    script: {fileID: 0}
  m_SampleRate: 10
  m_WrapMode: 0
  m_Bounds:
    m_Center: {x: 0, y: 0, z: 0}
    m_Extent: {x: 0, y: 0, z: 0}
  m_ClipBindingConstant:
    genericBindings:
    - serializedVersion: 2
      path: 0
      attribute: 0
      script: {fileID: 0}
      typeID: 212
      customType: 23
      isPPtrCurve: 1
    pptrCurveMapping:
    - {fileID: 504724637, guid: 8d931f33cc547324bb93d58f3e79b1f6, type: 3}
    - {fileID: 477189322, guid: 8d931f33cc547324bb93d58f3e79b1f6, type: 3}
    - {fileID: -165803686, guid: 8d931f33cc547324bb93d58f3e79b1f6, type: 3}
    - {fileID: -617314096, guid: 8d931f33cc547324bb93d58f3e79b1f6, type: 3}
    - {fileID: -1147323249, guid: 8d931f33cc547324bb93d58f3e79b1f6, type: 3}
    - {fileID: 604837485, guid: 8d931f33cc547324bb93d58f3e79b1f6, type: 3}
    - {fileID: -1278795121, guid: 8d931f33cc547324bb93d58f3e79b1f6, type: 3}
    - {fileID: 340293635, guid: 8d931f33cc547324bb93d58f3e79b1f6, type: 3}
    - {fileID: -1169379925, guid: 8d931f33cc547324bb93d58f3e79b1f6, type: 3}
    - {fileID: 252408882, guid: 8d931f33cc547324bb93d58f3e79b1f6, type: 3}
    - {fileID: 1575995582, guid: 8d931f33cc547324bb93d58f3e79b1f6, type: 3}
  m_AnimationClipSettings:
    serializedVersion: 2
    m_AdditiveReferencePoseClip: {fileID: 0}
    m_AdditiveReferencePoseTime: 0
    m_StartTime: 0
    m_StopTime: 1.1
    m_OrientationOffsetY: 0
    m_Level: 0
    m_CycleOffset: 0
    m_HasAdditiveReferencePose: 0
    m_LoopTime: 0
    m_LoopBlend: 0
    m_LoopBlendOrientation: 0
    m_LoopBlendPositionY: 0
    m_LoopBlendPositionXZ: 0
    m_KeepOriginalOrientation: 0
    m_KeepOriginalPositionY: 1
    m_KeepOriginalPositionXZ: 0
    m_HeightFromFeet: 0
    m_Mirror: 0
  m_EditorCurves: []
  m_EulerEditorCurves: []
  m_HasGenericRootTransform: 0
  m_HasMotionFloatCurves: 0
  m_Events: []
