%YAML 1.1
%TAG !u! tag:unity3d.com,2011:
--- !u!74 &7400000
AnimationClip:
  m_ObjectHideFlags: 0
  m_CorrespondingSourceObject: {fileID: 0}
  m_PrefabInstance: {fileID: 0}
  m_PrefabAsset: {fileID: 0}
  m_Name: E_MagnetOpen
  serializedVersion: 6
  m_Legacy: 0
  m_Compressed: 0
  m_UseHighQualityCurve: 1
  m_RotationCurves: []
  m_CompressedRotationCurves: []
  m_EulerCurves: []
  m_PositionCurves: []
  m_ScaleCurves: []
  m_FloatCurves: []
  m_PPtrCurves:
  - curve:
    - time: 0
      value: {fileID: -668696578, guid: d772f5de2e6f0a04b9d5c691625b99b0, type: 3}
    - time: 0.1
      value: {fileID: 1453792071, guid: d772f5de2e6f0a04b9d5c691625b99b0, type: 3}
    - time: 0.2
      value: {fileID: -1149896115, guid: d772f5de2e6f0a04b9d5c691625b99b0, type: 3}
    - time: 0.3
      value: {fileID: 72042041, guid: d772f5de2e6f0a04b9d5c691625b99b0, type: 3}
    - time: 0.4
      value: {fileID: -757805972, guid: d772f5de2e6f0a04b9d5c691625b99b0, type: 3}
    - time: 0.5
      value: {fileID: 1622276598, guid: d772f5de2e6f0a04b9d5c691625b99b0, type: 3}
    - time: 0.6
      value: {fileID: 1478421468, guid: d772f5de2e6f0a04b9d5c691625b99b0, type: 3}
    - time: 0.7
      value: {fileID: -1040331286, guid: d772f5de2e6f0a04b9d5c691625b99b0, type: 3}
    - time: 0.8
      value: {fileID: -1469459752, guid: d772f5de2e6f0a04b9d5c691625b99b0, type: 3}
    - time: 0.9
      value: {fileID: 1061410270, guid: d772f5de2e6f0a04b9d5c691625b99b0, type: 3}
    - time: 1
      value: {fileID: 1442069340, guid: d772f5de2e6f0a04b9d5c691625b99b0, type: 3}
    - time: 1.1
      value: {fileID: 830186321, guid: d772f5de2e6f0a04b9d5c691625b99b0, type: 3}
    - time: 1.2
      value: {fileID: -2008228245, guid: d772f5de2e6f0a04b9d5c691625b99b0, type: 3}
    - time: 1.3
      value: {fileID: -1593954011, guid: d772f5de2e6f0a04b9d5c691625b99b0, type: 3}
    - time: 1.4
      value: {fileID: 1647800151, guid: d772f5de2e6f0a04b9d5c691625b99b0, type: 3}
    - time: 1.5
      value: {fileID: -1207775350, guid: d772f5de2e6f0a04b9d5c691625b99b0, type: 3}
    attribute: m_Sprite
    path: 
    classID: 212
    script: {fileID: 0}
  m_SampleRate: 10
  m_WrapMode: 0
  m_Bounds:
    m_Center: {x: 0, y: 0, z: 0}
    m_Extent: {x: 0, y: 0, z: 0}
  m_ClipBindingConstant:
    genericBindings:
    - serializedVersion: 2
      path: 0
      attribute: 0
      script: {fileID: 0}
      typeID: 212
      customType: 23
      isPPtrCurve: 1
    pptrCurveMapping:
    - {fileID: -668696578, guid: d772f5de2e6f0a04b9d5c691625b99b0, type: 3}
    - {fileID: 1453792071, guid: d772f5de2e6f0a04b9d5c691625b99b0, type: 3}
    - {fileID: -1149896115, guid: d772f5de2e6f0a04b9d5c691625b99b0, type: 3}
    - {fileID: 72042041, guid: d772f5de2e6f0a04b9d5c691625b99b0, type: 3}
    - {fileID: -757805972, guid: d772f5de2e6f0a04b9d5c691625b99b0, type: 3}
    - {fileID: 1622276598, guid: d772f5de2e6f0a04b9d5c691625b99b0, type: 3}
    - {fileID: 1478421468, guid: d772f5de2e6f0a04b9d5c691625b99b0, type: 3}
    - {fileID: -1040331286, guid: d772f5de2e6f0a04b9d5c691625b99b0, type: 3}
    - {fileID: -1469459752, guid: d772f5de2e6f0a04b9d5c691625b99b0, type: 3}
    - {fileID: 1061410270, guid: d772f5de2e6f0a04b9d5c691625b99b0, type: 3}
    - {fileID: 1442069340, guid: d772f5de2e6f0a04b9d5c691625b99b0, type: 3}
    - {fileID: 830186321, guid: d772f5de2e6f0a04b9d5c691625b99b0, type: 3}
    - {fileID: -2008228245, guid: d772f5de2e6f0a04b9d5c691625b99b0, type: 3}
    - {fileID: -1593954011, guid: d772f5de2e6f0a04b9d5c691625b99b0, type: 3}
    - {fileID: 1647800151, guid: d772f5de2e6f0a04b9d5c691625b99b0, type: 3}
    - {fileID: -1207775350, guid: d772f5de2e6f0a04b9d5c691625b99b0, type: 3}
  m_AnimationClipSettings:
    serializedVersion: 2
    m_AdditiveReferencePoseClip: {fileID: 0}
    m_AdditiveReferencePoseTime: 0
    m_StartTime: 0
    m_StopTime: 1.6
    m_OrientationOffsetY: 0
    m_Level: 0
    m_CycleOffset: 0
    m_HasAdditiveReferencePose: 0
    m_LoopTime: 0
    m_LoopBlend: 0
    m_LoopBlendOrientation: 0
    m_LoopBlendPositionY: 0
    m_LoopBlendPositionXZ: 0
    m_KeepOriginalOrientation: 0
    m_KeepOriginalPositionY: 1
    m_KeepOriginalPositionXZ: 0
    m_HeightFromFeet: 0
    m_Mirror: 0
  m_EditorCurves: []
  m_EulerEditorCurves: []
  m_HasGenericRootTransform: 0
  m_HasMotionFloatCurves: 0
  m_Events:
  - time: 0.5
    functionName: OnActivate
    data: 
    objectReferenceParameter: {fileID: 0}
    floatParameter: 0
    intParameter: 0
    messageOptions: 0
