%YAML 1.1
%TAG !u! tag:unity3d.com,2011:
--- !u!114 &11400000
MonoBehaviour:
  m_ObjectHideFlags: 0
  m_CorrespondingSourceObject: {fileID: 0}
  m_PrefabInstance: {fileID: 0}
  m_PrefabAsset: {fileID: 0}
  m_GameObject: {fileID: 0}
  m_Enabled: 1
  m_EditorHideFlags: 0
  m_Script: {fileID: 11500000, guid: 3fa300af5791fcb4582939af340eee16, type: 3}
  m_Name: Insecticide
  m_EditorClassIdentifier: 
  weaponLevelSO: {fileID: 11400000, guid: 88f291a728a880c468145269d48f0204, type: 2}
  powerupLevelSO: {fileID: 0}
  isNew: 0100000000
  isEvolve: 0000000001
  sprite: {fileID: 21300000, guid: 4d22db5729b163a44a1e8ee03f8f3d26, type: 3}
  evolvedSprite: {fileID: 21300000, guid: 8cf216040aa80cd4480fa1ce259c8721, type: 3}
  rewardName: Insecticide 9000
  rewardDescriptions:
  - 
  - Shoots a cloud of toxic gas deadly to Dengue mosquitoes
  - 
  - 
  - 
  - 
  - 
