%YAML 1.1
%TAG !u! tag:unity3d.com,2011:
--- !u!74 &7400000
AnimationClip:
  m_ObjectHideFlags: 0
  m_CorrespondingSourceObject: {fileID: 0}
  m_PrefabInstance: {fileID: 0}
  m_PrefabAsset: {fileID: 0}
  m_Name: B3_Walk
  serializedVersion: 6
  m_Legacy: 0
  m_Compressed: 0
  m_UseHighQualityCurve: 1
  m_RotationCurves: []
  m_CompressedRotationCurves: []
  m_EulerCurves: []
  m_PositionCurves: []
  m_ScaleCurves: []
  m_FloatCurves: []
  m_PPtrCurves:
  - curve:
    - time: 0
      value: {fileID: -1311497070, guid: 096481bb2fcdd0f48a7105e37729f874, type: 3}
    - time: 0.083333336
      value: {fileID: 606716192, guid: 096481bb2fcdd0f48a7105e37729f874, type: 3}
    - time: 0.16666667
      value: {fileID: 271100305, guid: 096481bb2fcdd0f48a7105e37729f874, type: 3}
    - time: 0.25
      value: {fileID: 1800663695, guid: 096481bb2fcdd0f48a7105e37729f874, type: 3}
    - time: 0.33333334
      value: {fileID: -1349832224, guid: 096481bb2fcdd0f48a7105e37729f874, type: 3}
    - time: 0.41666666
      value: {fileID: -1440571204, guid: 096481bb2fcdd0f48a7105e37729f874, type: 3}
    - time: 0.5
      value: {fileID: 2093896550, guid: 096481bb2fcdd0f48a7105e37729f874, type: 3}
    - time: 0.5833333
      value: {fileID: -361070850, guid: 096481bb2fcdd0f48a7105e37729f874, type: 3}
    - time: 0.6666667
      value: {fileID: 772417771, guid: 096481bb2fcdd0f48a7105e37729f874, type: 3}
    - time: 0.75
      value: {fileID: 519464594, guid: 096481bb2fcdd0f48a7105e37729f874, type: 3}
    - time: 0.8333333
      value: {fileID: 1743911045, guid: 096481bb2fcdd0f48a7105e37729f874, type: 3}
    - time: 0.9166667
      value: {fileID: -868328185, guid: 096481bb2fcdd0f48a7105e37729f874, type: 3}
    - time: 1
      value: {fileID: -1206197655, guid: 096481bb2fcdd0f48a7105e37729f874, type: 3}
    - time: 1.0833334
      value: {fileID: 40352073, guid: 096481bb2fcdd0f48a7105e37729f874, type: 3}
    - time: 1.1666666
      value: {fileID: 57650768, guid: 096481bb2fcdd0f48a7105e37729f874, type: 3}
    - time: 1.25
      value: {fileID: 1433538630, guid: 096481bb2fcdd0f48a7105e37729f874, type: 3}
    - time: 1.3333334
      value: {fileID: -723434329, guid: 096481bb2fcdd0f48a7105e37729f874, type: 3}
    - time: 1.4166666
      value: {fileID: -488596515, guid: 096481bb2fcdd0f48a7105e37729f874, type: 3}
    - time: 1.5
      value: {fileID: 648704717, guid: 096481bb2fcdd0f48a7105e37729f874, type: 3}
    - time: 1.5833334
      value: {fileID: 1652360424, guid: 096481bb2fcdd0f48a7105e37729f874, type: 3}
    attribute: m_Sprite
    path: 
    classID: 212
    script: {fileID: 0}
  m_SampleRate: 12
  m_WrapMode: 0
  m_Bounds:
    m_Center: {x: 0, y: 0, z: 0}
    m_Extent: {x: 0, y: 0, z: 0}
  m_ClipBindingConstant:
    genericBindings:
    - serializedVersion: 2
      path: 0
      attribute: 0
      script: {fileID: 0}
      typeID: 212
      customType: 23
      isPPtrCurve: 1
    pptrCurveMapping:
    - {fileID: -1311497070, guid: 096481bb2fcdd0f48a7105e37729f874, type: 3}
    - {fileID: 606716192, guid: 096481bb2fcdd0f48a7105e37729f874, type: 3}
    - {fileID: 271100305, guid: 096481bb2fcdd0f48a7105e37729f874, type: 3}
    - {fileID: 1800663695, guid: 096481bb2fcdd0f48a7105e37729f874, type: 3}
    - {fileID: -1349832224, guid: 096481bb2fcdd0f48a7105e37729f874, type: 3}
    - {fileID: -1440571204, guid: 096481bb2fcdd0f48a7105e37729f874, type: 3}
    - {fileID: 2093896550, guid: 096481bb2fcdd0f48a7105e37729f874, type: 3}
    - {fileID: -361070850, guid: 096481bb2fcdd0f48a7105e37729f874, type: 3}
    - {fileID: 772417771, guid: 096481bb2fcdd0f48a7105e37729f874, type: 3}
    - {fileID: 519464594, guid: 096481bb2fcdd0f48a7105e37729f874, type: 3}
    - {fileID: 1743911045, guid: 096481bb2fcdd0f48a7105e37729f874, type: 3}
    - {fileID: -868328185, guid: 096481bb2fcdd0f48a7105e37729f874, type: 3}
    - {fileID: -1206197655, guid: 096481bb2fcdd0f48a7105e37729f874, type: 3}
    - {fileID: 40352073, guid: 096481bb2fcdd0f48a7105e37729f874, type: 3}
    - {fileID: 57650768, guid: 096481bb2fcdd0f48a7105e37729f874, type: 3}
    - {fileID: 1433538630, guid: 096481bb2fcdd0f48a7105e37729f874, type: 3}
    - {fileID: -723434329, guid: 096481bb2fcdd0f48a7105e37729f874, type: 3}
    - {fileID: -488596515, guid: 096481bb2fcdd0f48a7105e37729f874, type: 3}
    - {fileID: 648704717, guid: 096481bb2fcdd0f48a7105e37729f874, type: 3}
    - {fileID: 1652360424, guid: 096481bb2fcdd0f48a7105e37729f874, type: 3}
  m_AnimationClipSettings:
    serializedVersion: 2
    m_AdditiveReferencePoseClip: {fileID: 0}
    m_AdditiveReferencePoseTime: 0
    m_StartTime: 0
    m_StopTime: 1.6666666
    m_OrientationOffsetY: 0
    m_Level: 0
    m_CycleOffset: 0
    m_HasAdditiveReferencePose: 0
    m_LoopTime: 1
    m_LoopBlend: 0
    m_LoopBlendOrientation: 0
    m_LoopBlendPositionY: 0
    m_LoopBlendPositionXZ: 0
    m_KeepOriginalOrientation: 0
    m_KeepOriginalPositionY: 1
    m_KeepOriginalPositionXZ: 0
    m_HeightFromFeet: 0
    m_Mirror: 0
  m_EditorCurves: []
  m_EulerEditorCurves: []
  m_HasGenericRootTransform: 0
  m_HasMotionFloatCurves: 0
  m_Events: []
