%YAML 1.1
%TAG !u! tag:unity3d.com,2011:
--- !u!74 &7400000
AnimationClip:
  m_ObjectHideFlags: 0
  m_CorrespondingSourceObject: {fileID: 0}
  m_PrefabInstance: {fileID: 0}
  m_PrefabAsset: {fileID: 0}
  m_Name: V6E_Walk
  serializedVersion: 6
  m_Legacy: 0
  m_Compressed: 0
  m_UseHighQualityCurve: 1
  m_RotationCurves: []
  m_CompressedRotationCurves: []
  m_EulerCurves: []
  m_PositionCurves: []
  m_ScaleCurves: []
  m_FloatCurves: []
  m_PPtrCurves:
  - curve:
    - time: 0
      value: {fileID: 1182617862, guid: c235acd09ff17b842a3b36e077e2db11, type: 3}
    - time: 0.1
      value: {fileID: -1086754631, guid: c235acd09ff17b842a3b36e077e2db11, type: 3}
    - time: 0.2
      value: {fileID: 1970842944, guid: c235acd09ff17b842a3b36e077e2db11, type: 3}
    - time: 0.3
      value: {fileID: -469778561, guid: c235acd09ff17b842a3b36e077e2db11, type: 3}
    - time: 0.4
      value: {fileID: -405740797, guid: c235acd09ff17b842a3b36e077e2db11, type: 3}
    - time: 0.5
      value: {fileID: 312024112, guid: c235acd09ff17b842a3b36e077e2db11, type: 3}
    - time: 0.6
      value: {fileID: -1271142621, guid: c235acd09ff17b842a3b36e077e2db11, type: 3}
    - time: 0.7
      value: {fileID: 2123239834, guid: c235acd09ff17b842a3b36e077e2db11, type: 3}
    - time: 0.8
      value: {fileID: 1065670031, guid: c235acd09ff17b842a3b36e077e2db11, type: 3}
    - time: 0.9
      value: {fileID: -369741139, guid: c235acd09ff17b842a3b36e077e2db11, type: 3}
    - time: 1
      value: {fileID: -584991028, guid: c235acd09ff17b842a3b36e077e2db11, type: 3}
    - time: 1.1
      value: {fileID: 2083747493, guid: c235acd09ff17b842a3b36e077e2db11, type: 3}
    - time: 1.2
      value: {fileID: 1939241829, guid: c235acd09ff17b842a3b36e077e2db11, type: 3}
    - time: 1.3
      value: {fileID: 1551585367, guid: c235acd09ff17b842a3b36e077e2db11, type: 3}
    - time: 1.4
      value: {fileID: 732256067, guid: c235acd09ff17b842a3b36e077e2db11, type: 3}
    - time: 1.5
      value: {fileID: 1136787435, guid: c235acd09ff17b842a3b36e077e2db11, type: 3}
    attribute: m_Sprite
    path: 
    classID: 212
    script: {fileID: 0}
  m_SampleRate: 10
  m_WrapMode: 0
  m_Bounds:
    m_Center: {x: 0, y: 0, z: 0}
    m_Extent: {x: 0, y: 0, z: 0}
  m_ClipBindingConstant:
    genericBindings:
    - serializedVersion: 2
      path: 0
      attribute: 0
      script: {fileID: 0}
      typeID: 212
      customType: 23
      isPPtrCurve: 1
    pptrCurveMapping:
    - {fileID: 1182617862, guid: c235acd09ff17b842a3b36e077e2db11, type: 3}
    - {fileID: -1086754631, guid: c235acd09ff17b842a3b36e077e2db11, type: 3}
    - {fileID: 1970842944, guid: c235acd09ff17b842a3b36e077e2db11, type: 3}
    - {fileID: -469778561, guid: c235acd09ff17b842a3b36e077e2db11, type: 3}
    - {fileID: -405740797, guid: c235acd09ff17b842a3b36e077e2db11, type: 3}
    - {fileID: 312024112, guid: c235acd09ff17b842a3b36e077e2db11, type: 3}
    - {fileID: -1271142621, guid: c235acd09ff17b842a3b36e077e2db11, type: 3}
    - {fileID: 2123239834, guid: c235acd09ff17b842a3b36e077e2db11, type: 3}
    - {fileID: 1065670031, guid: c235acd09ff17b842a3b36e077e2db11, type: 3}
    - {fileID: -369741139, guid: c235acd09ff17b842a3b36e077e2db11, type: 3}
    - {fileID: -584991028, guid: c235acd09ff17b842a3b36e077e2db11, type: 3}
    - {fileID: 2083747493, guid: c235acd09ff17b842a3b36e077e2db11, type: 3}
    - {fileID: 1939241829, guid: c235acd09ff17b842a3b36e077e2db11, type: 3}
    - {fileID: 1551585367, guid: c235acd09ff17b842a3b36e077e2db11, type: 3}
    - {fileID: 732256067, guid: c235acd09ff17b842a3b36e077e2db11, type: 3}
    - {fileID: 1136787435, guid: c235acd09ff17b842a3b36e077e2db11, type: 3}
  m_AnimationClipSettings:
    serializedVersion: 2
    m_AdditiveReferencePoseClip: {fileID: 0}
    m_AdditiveReferencePoseTime: 0
    m_StartTime: 0
    m_StopTime: 1.6
    m_OrientationOffsetY: 0
    m_Level: 0
    m_CycleOffset: 0
    m_HasAdditiveReferencePose: 0
    m_LoopTime: 1
    m_LoopBlend: 0
    m_LoopBlendOrientation: 0
    m_LoopBlendPositionY: 0
    m_LoopBlendPositionXZ: 0
    m_KeepOriginalOrientation: 0
    m_KeepOriginalPositionY: 1
    m_KeepOriginalPositionXZ: 0
    m_HeightFromFeet: 0
    m_Mirror: 0
  m_EditorCurves: []
  m_EulerEditorCurves: []
  m_HasGenericRootTransform: 0
  m_HasMotionFloatCurves: 0
  m_Events: []
