%YAML 1.1
%TAG !u! tag:unity3d.com,2011:
--- !u!114 &11400000
MonoBehaviour:
  m_ObjectHideFlags: 0
  m_CorrespondingSourceObject: {fileID: 0}
  m_PrefabInstance: {fileID: 0}
  m_PrefabAsset: {fileID: 0}
  m_GameObject: {fileID: 0}
  m_Enabled: 1
  m_EditorHideFlags: 0
  m_Script: {fileID: 11500000, guid: 3fa300af5791fcb4582939af340eee16, type: 3}
  m_Name: Radius
  m_EditorClassIdentifier: 
  weaponLevelSO: {fileID: 0}
  powerupLevelSO: {fileID: 11400000, guid: 59fec1ff951a62f41af1ce16be000d6e, type: 2}
  isNew: 01000000
  isEvolve: 
  sprite: {fileID: 21300000, guid: 8e1cbf3c873f722449b39d3648a789d6, type: 3}
  evolvedSprite: {fileID: 0}
  rewardName: Range Extender
  rewardDescriptions:
  - 
  - Increase the radius of AOE weapons
  - Increase the radius of AOE weapons
  - Increase the radius of AOE weapons
