%YAML 1.1
%TAG !u! tag:unity3d.com,2011:
--- !u!114 &11400000
MonoBehaviour:
  m_ObjectHideFlags: 0
  m_CorrespondingSourceObject: {fileID: 0}
  m_PrefabInstance: {fileID: 0}
  m_PrefabAsset: {fileID: 0}
  m_GameObject: {fileID: 0}
  m_Enabled: 1
  m_EditorHideFlags: 0
  m_Script: {fileID: 11500000, guid: d2732a419a93d6c4dbd0bb18321f3386, type: 3}
  m_Name: C1StatSO
  m_EditorClassIdentifier: 
  health: 150
  maxHealth: 150
  atkSpeed: 2
  damage: 100
  moveSpeed: 5
